counter_post/counter_post.sim/sim_1/behav/xsim/count_up.vcd
$date
   Sat Mar 26 11:36:29 2022
$end
$version
  2019.2
$end
$timescale
  1ps
$end
$scope module upcounter_testbench $end
$var reg 1 ! clk $end
$var reg 1 " reset $end
$var reg 1 # enable $end
$var wire 4 $ out [3:0] $end
$scope module dut $end
$var wire 1 % \up_counter^enable  $end
$var wire 1 & \up_counter^clk  $end
$var wire 1 ' \up_counter^reset  $end
$var wire 1 ( \up_counter^out~0  $end
$var wire 1 ) \up_counter^out~1  $end
$var wire 1 * \up_counter^out~2  $end
$var wire 1 + \up_counter^out~3  $end
$var wire 1 , \up_counter^enable_output_0_0  $end
$var wire 1 - \up_counter^clk_output_0_0  $end
$var wire 1 . \up_counter^reset_output_0_0  $end
$var wire 1 / lut_n22_output_0_0 $end
$var wire 1 0 lut_n27_output_0_0 $end
$var wire 1 1 lut_n32_output_0_0 $end
$var wire 1 2 lut_n37_output_0_0 $end
$var wire 1 3 lut_vcc_output_0_0 $end
$var wire 1 4 \adder_up_counter^ADD~4-0[0]_output_0_0  $end
$var wire 1 5 \adder_up_counter^ADD~4-1[0]_output_0_0  $end
$var wire 1 6 \adder_up_counter^ADD~4-1[0]_output_1_0  $end
$var wire 1 7 lut_gnd_output_0_0 $end
$var wire 1 8 \adder_up_counter^ADD~4-2[0]_output_0_0  $end
$var wire 1 9 \adder_up_counter^ADD~4-2[0]_output_1_0  $end
$var wire 1 : \adder_up_counter^ADD~4-3[0]_output_0_0  $end
$var wire 1 ; \adder_up_counter^ADD~4-3[0]_output_1_0  $end
$var wire 1 < \adder_up_counter^ADD~4-4[0]_output_1_0  $end
$var wire 1 = \latch_up_counter^out~0_FF_output_0_0  $end
$var wire 1 > \latch_up_counter^out~1_FF_output_0_0  $end
$var wire 1 ? \latch_up_counter^out~2_FF_output_0_0  $end
$var wire 1 @ \latch_up_counter^out~3_FF_output_0_0  $end
$var wire 1 A lut_n22_input_0_2 $end
$var wire 1 B lut_n27_input_0_0 $end
$var wire 1 C lut_n37_input_0_4 $end
$var wire 1 D lut_n32_input_0_0 $end
$var wire 1 E \latch_up_counter^out~0_FF_clock_0_0  $end
$var wire 1 F \latch_up_counter^out~3_FF_clock_0_0  $end
$var wire 1 G \latch_up_counter^out~1_FF_clock_0_0  $end
$var wire 1 H \latch_up_counter^out~2_FF_clock_0_0  $end
$var wire 1 I lut_n22_input_0_1 $end
$var wire 1 J lut_n27_input_0_2 $end
$var wire 1 K lut_n37_input_0_2 $end
$var wire 1 L lut_n32_input_0_4 $end
$var wire 1 M \latch_up_counter^out~0_FF_input_0_0  $end
$var wire 1 N \latch_up_counter^out~3_FF_input_0_0  $end
$var wire 1 O \latch_up_counter^out~2_FF_input_0_0  $end
$var wire 1 P \latch_up_counter^out~1_FF_input_0_0  $end
$var wire 1 Q \adder_up_counter^ADD~4-0[0]_input_0_0  $end
$var wire 1 R \adder_up_counter^ADD~4-1[0]_input_1_0  $end
$var wire 1 S \adder_up_counter^ADD~4-1[0]_input_2_0  $end
$var wire 1 T \adder_up_counter^ADD~4-2[0]_input_2_0  $end
$var wire 1 U lut_n22_input_0_3 $end
$var wire 1 V \adder_up_counter^ADD~4-0[0]_input_1_0  $end
$var wire 1 W \adder_up_counter^ADD~4-2[0]_input_1_0  $end
$var wire 1 X \adder_up_counter^ADD~4-3[0]_input_1_0  $end
$var wire 1 Y \adder_up_counter^ADD~4-4[0]_input_1_0  $end
$var wire 1 Z \adder_up_counter^ADD~4-3[0]_input_2_0  $end
$var wire 1 [ lut_n37_input_0_3 $end
$var wire 1 \ \adder_up_counter^ADD~4-4[0]_input_2_0  $end
$var wire 1 ] lut_n32_input_0_1 $end
$var wire 1 ^ lut_n27_input_0_1 $end
$var wire 1 _ lut_n22_input_0_4 $end
$var wire 1 ` \adder_up_counter^ADD~4-1[0]_input_0_0  $end
$var wire 1 a \up_counter^out~0_input_0_0  $end
$var wire 1 b lut_n37_input_0_0 $end
$var wire 1 c \adder_up_counter^ADD~4-2[0]_input_0_0  $end
$var wire 1 d \up_counter^out~1_input_0_0  $end
$var wire 1 e lut_n32_input_0_2 $end
$var wire 1 f \adder_up_counter^ADD~4-3[0]_input_0_0  $end
$var wire 1 g \up_counter^out~2_input_0_0  $end
$var wire 1 h lut_n27_input_0_4 $end
$var wire 1 i \adder_up_counter^ADD~4-4[0]_input_0_0  $end
$var wire 1 j \up_counter^out~3_input_0_0  $end
$scope module routing_segment_up_counter^enable_output_0_0_to_lut_n22_input_0_2 $end
$var wire 1 , datain $end
$var wire 1 A dataout $end
$upscope $end
$scope module routing_segment_up_counter^enable_output_0_0_to_lut_n27_input_0_0 $end
$var wire 1 , datain $end
$var wire 1 B dataout $end
$upscope $end
$scope module routing_segment_up_counter^enable_output_0_0_to_lut_n37_input_0_4 $end
$var wire 1 , datain $end
$var wire 1 C dataout $end
$upscope $end
$scope module routing_segment_up_counter^enable_output_0_0_to_lut_n32_input_0_0 $end
$var wire 1 , datain $end
$var wire 1 D dataout $end
$upscope $end
$scope module routing_segment_up_counter^clk_output_0_0_to_latch_up_counter^out~0_FF_clock_0_0 $end
$var wire 1 - datain $end
$var wire 1 E dataout $end
$upscope $end
$scope module routing_segment_up_counter^clk_output_0_0_to_latch_up_counter^out~3_FF_clock_0_0 $end
$var wire 1 - datain $end
$var wire 1 F dataout $end
$upscope $end
$scope module routing_segment_up_counter^clk_output_0_0_to_latch_up_counter^out~1_FF_clock_0_0 $end
$var wire 1 - datain $end
$var wire 1 G dataout $end
$upscope $end
$scope module routing_segment_up_counter^clk_output_0_0_to_latch_up_counter^out~2_FF_clock_0_0 $end
$var wire 1 - datain $end
$var wire 1 H dataout $end
$upscope $end
$scope module routing_segment_up_counter^reset_output_0_0_to_lut_n22_input_0_1 $end
$var wire 1 . datain $end
$var wire 1 I dataout $end
$upscope $end
$scope module routing_segment_up_counter^reset_output_0_0_to_lut_n27_input_0_2 $end
$var wire 1 . datain $end
$var wire 1 J dataout $end
$upscope $end
$scope module routing_segment_up_counter^reset_output_0_0_to_lut_n37_input_0_2 $end
$var wire 1 . datain $end
$var wire 1 K dataout $end
$upscope $end
$scope module routing_segment_up_counter^reset_output_0_0_to_lut_n32_input_0_4 $end
$var wire 1 . datain $end
$var wire 1 L dataout $end
$upscope $end
$scope module routing_segment_lut_n22_output_0_0_to_latch_up_counter^out~0_FF_input_0_0 $end
$var wire 1 / datain $end
$var wire 1 M dataout $end
$upscope $end
$scope module routing_segment_lut_n27_output_0_0_to_latch_up_counter^out~3_FF_input_0_0 $end
$var wire 1 0 datain $end
$var wire 1 N dataout $end
$upscope $end
$scope module routing_segment_lut_n32_output_0_0_to_latch_up_counter^out~2_FF_input_0_0 $end
$var wire 1 1 datain $end
$var wire 1 O dataout $end
$upscope $end
$scope module routing_segment_lut_n37_output_0_0_to_latch_up_counter^out~1_FF_input_0_0 $end
$var wire 1 2 datain $end
$var wire 1 P dataout $end
$upscope $end
$scope module routing_segment_lut_vcc_output_0_0_to_adder_up_counter^ADD~4-0[0]_input_0_0 $end
$var wire 1 3 datain $end
$var wire 1 Q dataout $end
$upscope $end
$scope module routing_segment_lut_vcc_output_0_0_to_adder_up_counter^ADD~4-1[0]_input_1_0 $end
$var wire 1 3 datain $end
$var wire 1 R dataout $end
$upscope $end
$scope module routing_segment_adder_up_counter^ADD~4-0[0]_output_0_0_to_adder_up_counter^ADD~4-1[0]_input_2_0 $end
$var wire 1 4 datain $end
$var wire 1 S dataout $end
$upscope $end
$scope module routing_segment_adder_up_counter^ADD~4-1[0]_output_0_0_to_adder_up_counter^ADD~4-2[0]_input_2_0 $end
$var wire 1 5 datain $end
$var wire 1 T dataout $end
$upscope $end
$scope module routing_segment_adder_up_counter^ADD~4-1[0]_output_1_0_to_lut_n22_input_0_3 $end
$var wire 1 6 datain $end
$var wire 1 U dataout $end
$upscope $end
$scope module routing_segment_lut_gnd_output_0_0_to_adder_up_counter^ADD~4-0[0]_input_1_0 $end
$var wire 1 7 datain $end
$var wire 1 V dataout $end
$upscope $end
$scope module routing_segment_lut_gnd_output_0_0_to_adder_up_counter^ADD~4-2[0]_input_1_0 $end
$var wire 1 7 datain $end
$var wire 1 W dataout $end
$upscope $end
$scope module routing_segment_lut_gnd_output_0_0_to_adder_up_counter^ADD~4-3[0]_input_1_0 $end
$var wire 1 7 datain $end
$var wire 1 X dataout $end
$upscope $end
$scope module routing_segment_lut_gnd_output_0_0_to_adder_up_counter^ADD~4-4[0]_input_1_0 $end
$var wire 1 7 datain $end
$var wire 1 Y dataout $end
$upscope $end
$scope module routing_segment_adder_up_counter^ADD~4-2[0]_output_0_0_to_adder_up_counter^ADD~4-3[0]_input_2_0 $end
$var wire 1 8 datain $end
$var wire 1 Z dataout $end
$upscope $end
$scope module routing_segment_adder_up_counter^ADD~4-2[0]_output_1_0_to_lut_n37_input_0_3 $end
$var wire 1 9 datain $end
$var wire 1 [ dataout $end
$upscope $end
$scope module routing_segment_adder_up_counter^ADD~4-3[0]_output_0_0_to_adder_up_counter^ADD~4-4[0]_input_2_0 $end
$var wire 1 : datain $end
$var wire 1 \ dataout $end
$upscope $end
$scope module routing_segment_adder_up_counter^ADD~4-3[0]_output_1_0_to_lut_n32_input_0_1 $end
$var wire 1 ; datain $end
$var wire 1 ] dataout $end
$upscope $end
$scope module routing_segment_adder_up_counter^ADD~4-4[0]_output_1_0_to_lut_n27_input_0_1 $end
$var wire 1 < datain $end
$var wire 1 ^ dataout $end
$upscope $end
$scope module routing_segment_latch_up_counter^out~0_FF_output_0_0_to_lut_n22_input_0_4 $end
$var wire 1 = datain $end
$var wire 1 _ dataout $end
$upscope $end
$scope module routing_segment_latch_up_counter^out~0_FF_output_0_0_to_adder_up_counter^ADD~4-1[0]_input_0_0 $end
$var wire 1 = datain $end
$var wire 1 ` dataout $end
$upscope $end
$scope module routing_segment_latch_up_counter^out~0_FF_output_0_0_to_up_counter^out~0_input_0_0 $end
$var wire 1 = datain $end
$var wire 1 a dataout $end
$upscope $end
$scope module routing_segment_latch_up_counter^out~1_FF_output_0_0_to_lut_n37_input_0_0 $end
$var wire 1 > datain $end
$var wire 1 b dataout $end
$upscope $end
$scope module routing_segment_latch_up_counter^out~1_FF_output_0_0_to_adder_up_counter^ADD~4-2[0]_input_0_0 $end
$var wire 1 > datain $end
$var wire 1 c dataout $end
$upscope $end
$scope module routing_segment_latch_up_counter^out~1_FF_output_0_0_to_up_counter^out~1_input_0_0 $end
$var wire 1 > datain $end
$var wire 1 d dataout $end
$upscope $end
$scope module routing_segment_latch_up_counter^out~2_FF_output_0_0_to_lut_n32_input_0_2 $end
$var wire 1 ? datain $end
$var wire 1 e dataout $end
$upscope $end
$scope module routing_segment_latch_up_counter^out~2_FF_output_0_0_to_adder_up_counter^ADD~4-3[0]_input_0_0 $end
$var wire 1 ? datain $end
$var wire 1 f dataout $end
$upscope $end
$scope module routing_segment_latch_up_counter^out~2_FF_output_0_0_to_up_counter^out~2_input_0_0 $end
$var wire 1 ? datain $end
$var wire 1 g dataout $end
$upscope $end
$scope module routing_segment_latch_up_counter^out~3_FF_output_0_0_to_lut_n27_input_0_4 $end
$var wire 1 @ datain $end
$var wire 1 h dataout $end
$upscope $end
$scope module routing_segment_latch_up_counter^out~3_FF_output_0_0_to_adder_up_counter^ADD~4-4[0]_input_0_0 $end
$var wire 1 @ datain $end
$var wire 1 i dataout $end
$upscope $end
$scope module routing_segment_latch_up_counter^out~3_FF_output_0_0_to_up_counter^out~3_input_0_0 $end
$var wire 1 @ datain $end
$var wire 1 j dataout $end
$upscope $end
$scope module lut_gnd $end
$var wire 5 k in [4:0] $end
$var wire 1 7 out $end
$var parameter 32 l K [31:0] $end
$var parameter 32 m LUT_MASK [31:0] $end
$upscope $end
$scope module lut_vcc $end
$var wire 5 n in [4:0] $end
$var wire 1 3 out $end
$var parameter 32 o K [31:0] $end
$var parameter 32 p LUT_MASK [31:0] $end
$upscope $end
$scope module lut_n22 $end
$var wire 5 q in [4:0] $end
$var wire 1 / out $end
$var parameter 32 r K [31:0] $end
$var parameter 32 s LUT_MASK [31:0] $end
$upscope $end
$scope module latch_up_counter^out~0_FF $end
$var wire 1 E clock $end
$var wire 1 M D $end
$var reg 1 t Q $end
$var parameter 0 u INITIAL_VALUE $end
$upscope $end
$scope module lut_n27 $end
$var wire 5 v in [4:0] $end
$var wire 1 0 out $end
$var parameter 32 w K [31:0] $end
$var parameter 32 x LUT_MASK [31:0] $end
$upscope $end
$scope module latch_up_counter^out~3_FF $end
$var wire 1 F clock $end
$var wire 1 N D $end
$var reg 1 y Q $end
$var parameter 0 z INITIAL_VALUE $end
$upscope $end
$scope module lut_n37 $end
$var wire 5 { in [4:0] $end
$var wire 1 2 out $end
$var parameter 32 | K [31:0] $end
$var parameter 32 } LUT_MASK [31:0] $end
$upscope $end
$scope module latch_up_counter^out~1_FF $end
$var wire 1 G clock $end
$var wire 1 P D $end
$var reg 1 ~ Q $end
$var parameter 0 !! INITIAL_VALUE $end
$upscope $end
$scope module lut_n32 $end
$var wire 5 "! in [4:0] $end
$var wire 1 1 out $end
$var parameter 32 #! K [31:0] $end
$var parameter 32 $! LUT_MASK [31:0] $end
$upscope $end
$scope module latch_up_counter^out~2_FF $end
$var wire 1 H clock $end
$var wire 1 O D $end
$var reg 1 %! Q $end
$var parameter 0 &! INITIAL_VALUE $end
$upscope $end
$scope module adder_up_counter^ADD~4-0[0] $end
$var wire 1 Q a [0:0] $end
$var wire 1 V b [0:0] $end
$var wire 1 '! cin $end
$var wire 1 4 cout $end
$var wire 1 (! sumout [0:0] $end
$var parameter 32 )! WIDTH [31:0] $end
$upscope $end
$scope module adder_up_counter^ADD~4-1[0] $end
$var wire 1 ` a [0:0] $end
$var wire 1 R b [0:0] $end
$var wire 1 S cin $end
$var wire 1 5 cout $end
$var wire 1 6 sumout [0:0] $end
$var parameter 32 *! WIDTH [31:0] $end
$upscope $end
$scope module adder_up_counter^ADD~4-2[0] $end
$var wire 1 c a [0:0] $end
$var wire 1 W b [0:0] $end
$var wire 1 T cin $end
$var wire 1 8 cout $end
$var wire 1 9 sumout [0:0] $end
$var parameter 32 +! WIDTH [31:0] $end
$upscope $end
$scope module adder_up_counter^ADD~4-3[0] $end
$var wire 1 f a [0:0] $end
$var wire 1 X b [0:0] $end
$var wire 1 Z cin $end
$var wire 1 : cout $end
$var wire 1 ; sumout [0:0] $end
$var parameter 32 ,! WIDTH [31:0] $end
$upscope $end
$scope module adder_up_counter^ADD~4-4[0] $end
$var wire 1 i a [0:0] $end
$var wire 1 Y b [0:0] $end
$var wire 1 \ cin $end
$var wire 1 -! cout $end
$var wire 1 < sumout [0:0] $end
$var parameter 32 .! WIDTH [31:0] $end
$upscope $end
$upscope $end
$upscope $end
$enddefinitions $end
#0
$dumpvars
0!
0!!
1"
b10000 "!
0#
b101 #!
b0 $
b11011000 $!
0%
0%!
0&
0&!
1'
0'!
0(
1(!
0)
b1 )!
0*
b1 *!
0+
b1 +!
0,
b1 ,!
0-
0-!
1.
b1 .!
0/
00
01
02
13
04
05
16
07
08
09
0:
0;
0<
0=
0>
0?
0@
0A
0B
0C
0D
0E
0F
0G
0H
1I
1J
1K
1L
0M
0N
0O
0P
1Q
1R
0S
0T
1U
0V
0W
0X
0Y
0Z
0[
0\
0]
0^
0_
0`
0a
0b
0c
0d
0e
0f
0g
0h
0i
0j
b0 k
b101 l
b11111111111111111111111111111110 m
b0 n
b101 o
b1 p
b1010 q
b101 r
b10001000000010001000000000000 s
0t
0u
b100 v
b101 w
b11010000000000001000 x
0y
0z
b100 {
b101 |
b11000000000000001000000010 }
0~
$end
#5000
1!
1&
1-
1E
1F
1G
1H
#10000
0!
0&
0-
0E
0F
0G
0H
#15000
1!
1&
1-
1E
1F
1G
1H
#20000
0!
0"
b1 "!
1#
1%
0&
0'
1,
0-
0.
1/
00
01
02
1A
1B
1C
1D
0E
0F
0G
0H
0I
0J
0K
0L
1M
b1100 q
b1 v
b10000 {
#25000
1!
b1 $
1&
1(
1-
0/
12
15
06
08
19
1=
1E
1F
1G
1H
0M
1P
1T
0U
1[
1_
1`
1a
b10100 q
1t
b11000 {
#30000
0!
0&
0-
0E
0F
0G
0H
#35000
1!
b1 "!
b10 $
1&
0(
1)
1-
1/
01
12
05
16
08
19
0:
0;
0=
1>
1E
1F
1G
1H
1M
0O
1P
0T
1U
0Z
1[
0]
0_
0`
0a
1b
1c
1d
b1100 q
0t
b11001 {
1~
#40000
0!
0&
0-
0E
0F
0G
0H
#45000
1!
b11 "!
b11 $
1&
1(
1-
0/
11
02
15
06
18
09
0:
1;
1=
1E
1F
1G
1H
0M
1O
0P
1T
0U
1Z
0[
1]
1_
1`
1a
b10100 q
1t
b10001 {
#50000
0!
0&
0-
0E
0F
0G
0H
#55000
1!
b111 "!
b100 $
1%!
1&
0(
0)
1*
1-
1/
00
11
02
05
16
08
09
0:
1;
0<
0=
0>
1?
1E
1F
1G
1H
1M
0N
1O
0P
0T
1U
0Z
0[
0\
1]
0^
0_
0`
0a
0b
0c
0d
1e
1f
1g
b1100 q
0t
b1 v
b10000 {
0~
#60000
0!
0&
0-
0E
0F
0G
0H
#65000
1!
b101 $
1&
1(
1-
0/
12
15
06
08
19
1=
1E
1F
1G
1H
0M
1P
1T
0U
1[
1_
1`
1a
b10100 q
1t
b11000 {
#70000
0!
0&
0-
0E
0F
0G
0H
#75000
1!
b111 "!
b110 $
1&
0(
1)
1-
1/
00
11
12
05
16
08
19
0:
1;
0<
0=
1>
1E
1F
1G
1H
1M
0N
1O
1P
0T
1U
0Z
1[
0\
1]
0^
0_
0`
0a
1b
1c
1d
b1100 q
0t
b1 v
b11001 {
1~
#80000
0!
0&
0-
0E
0F
0G
0H
#85000
1!
b101 "!
b111 $
1&
1(
1-
0/
10
01
02
15
06
18
09
1:
0;
1<
1=
1E
1F
1G
1H
0M
1N
0O
0P
1T
0U
1Z
0[
1\
0]
1^
1_
1`
1a
b10100 q
1t
b11 v
b10001 {
#90000
0!
0&
0-
0E
0F
0G
0H
#95000
1!
b1 "!
b1000 $
0%!
1&
0(
0)
0*
1+
1-
0-!
1/
10
01
02
05
16
08
09
0:
0;
1<
0=
0>
0?
1@
1E
1F
1G
1H
1M
1N
0O
0P
0T
1U
0Z
0[
0\
0]
1^
0_
0`
0a
0b
0c
0d
0e
0f
0g
1h
1i
1j
b1100 q
0t
b10011 v
1y
b10000 {
0~
#100000
0!
0&
0-
0E
0F
0G
0H
#105000
1!
b1001 $
1&
1(
1-
0/
12
15
06
08
19
1=
1E
1F
1G
1H
0M
1P
1T
0U
1[
1_
1`
1a
b10100 q
1t
b11000 {
#110000
0!
0&
0-
0E
0F
0G
0H
#115000
1!
b1 "!
b1010 $
1&
0(
1)
1-
1/
01
12
05
16
08
19
0:
0;
0=
1>
1E
1F
1G
1H
1M
0O
1P
0T
1U
0Z
1[
0]
0_
0`
0a
1b
1c
1d
b1100 q
0t
b11001 {
1~
#120000
0!
0&
0-
0E
0F
0G
0H
#125000
1!
b11 "!
b1011 $
1&
1(
1-
0/
11
02
15
06
18
09
0:
1;
1=
1E
1F
1G
1H
0M
1O
0P
1T
0U
1Z
0[
1]
1_
1`
1a
b10100 q
1t
b10001 {
#130000
0!
0&
0-
0E
0F
0G
0H
#135000
1!
b111 "!
b1100 $
1%!
1&
0(
0)
1*
1-
0-!
1/
10
11
02
05
16
08
09
0:
1;
1<
0=
0>
1?
1E
1F
1G
1H
1M
1N
1O
0P
0T
1U
0Z
0[
0\
1]
1^
0_
0`
0a
0b
0c
0d
1e
1f
1g
b1100 q
0t
b10011 v
b10000 {
0~
#140000
0!
0&
0-
0E
0F
0G
0H
#145000
1!
b1101 $
1&
1(
1-
0/
12
15
06
08
19
1=
1E
1F
1G
1H
0M
1P
1T
0U
1[
1_
1`
1a
b10100 q
1t
b11000 {
#150000
0!
0&
0-
0E
0F
0G
0H
#155000
1!
b111 "!
b1110 $
1&
0(
1)
1-
0-!
1/
10
11
12
05
16
08
19
0:
1;
1<
0=
1>
1E
1F
1G
1H
1M
1N
1O
1P
0T
1U
0Z
1[
0\
1]
1^
0_
0`
0a
1b
1c
1d
b1100 q
0t
b10011 v
b11001 {
1~
#160000
0!
0&
0-
0E
0F
0G
0H
#165000
1!
b101 "!
b1111 $
1&
1(
1-
1-!
0/
00
01
02
15
06
18
09
1:
0;
0<
1=
1E
1F
1G
1H
0M
0N
0O
0P
1T
0U
1Z
0[
1\
0]
0^
1_
1`
1a
b10100 q
1t
b10001 v
b10001 {
#170000
0!
0&
0-
0E
0F
0G
0H
#175000
1!
b1 "!
b0 $
0%!
1&
0(
0)
0*
0+
1-
0-!
1/
00
01
02
05
16
08
09
0:
0;
0<
0=
0>
0?
0@
1E
1F
1G
1H
1M
0N
0O
0P
0T
1U
0Z
0[
0\
0]
0^
0_
0`
0a
0b
0c
0d
0e
0f
0g
0h
0i
0j
b1100 q
0t
b1 v
0y
b10000 {
0~
#180000
0!
0&
0-
0E
0F
0G
0H
#185000
1!
b1 $
1&
1(
1-
0/
12
15
06
08
19
1=
1E
1F
1G
1H
0M
1P
1T
0U
1[
1_
1`
1a
b10100 q
1t
b11000 {
#190000
0!
0&
0-
0E
0F
0G
0H
#195000
1!
b1 "!
b10 $
1&
0(
1)
1-
1/
01
12
05
16
08
19
0:
0;
0=
1>
1E
1F
1G
1H
1M
0O
1P
0T
1U
0Z
1[
0]
0_
0`
0a
1b
1c
1d
b1100 q
0t
b11001 {
1~
#200000
0!
0&
0-
0E
0F
0G
0H
#205000
1!
b11 "!
b11 $
1&
1(
1-
0/
11
02
15
06
18
09
0:
1;
1=
1E
1F
1G
1H
0M
1O
0P
1T
0U
1Z
0[
1]
1_
1`
1a
b10100 q
1t
b10001 {
#210000
0!
0&
0-
0E
0F
0G
0H
#215000
1!
b111 "!
b100 $
1%!
1&
0(
0)
1*
1-
1/
00
11
02
05
16
08
09
0:
1;
0<
0=
0>
1?
1E
1F
1G
1H
1M
0N
1O
0P
0T
1U
0Z
0[
0\
1]
0^
0_
0`
0a
0b
0c
0d
1e
1f
1g
b1100 q
0t
b1 v
b10000 {
0~
#220000
0!
0&
0-
0E
0F
0G
0H
#225000
1!
b101 $
1&
1(
1-
0/
12
15
06
08
19
1=
1E
1F
1G
1H
0M
1P
1T
0U
1[
1_
1`
1a
b10100 q
1t
b11000 {
#230000
0!
0&
0-
0E
0F
0G
0H
#235000
1!
b111 "!
b110 $
1&
0(
1)
1-
1/
00
11
12
05
16
08
19
0:
1;
0<
0=
1>
1E
1F
1G
1H
1M
0N
1O
1P
0T
1U
0Z
1[
0\
1]
0^
0_
0`
0a
1b
1c
1d
b1100 q
0t
b1 v
b11001 {
1~
#240000
0!
0&
0-
0E
0F
0G
0H
#245000
1!
b101 "!
b111 $
1&
1(
1-
0/
10
01
02
15
06
18
09
1:
0;
1<
1=
1E
1F
1G
1H
0M
1N
0O
0P
1T
0U
1Z
0[
1\
0]
1^
1_
1`
1a
b10100 q
1t
b11 v
b10001 {
#250000
0!
0&
0-
0E
0F
0G
0H
#255000
1!
b1 "!
b1000 $
0%!
1&
0(
0)
0*
1+
1-
0-!
1/
10
01
02
05
16
08
09
0:
0;
1<
0=
0>
0?
1@
1E
1F
1G
1H
1M
1N
0O
0P
0T
1U
0Z
0[
0\
0]
1^
0_
0`
0a
0b
0c
0d
0e
0f
0g
1h
1i
1j
b1100 q
0t
b10011 v
1y
b10000 {
0~
#260000
0!
0&
0-
0E
0F
0G
0H
#265000
1!
b1001 $
1&
1(
1-
0/
12
15
06
08
19
1=
1E
1F
1G
1H
0M
1P
1T
0U
1[
1_
1`
1a
b10100 q
1t
b11000 {
#270000
0!
0&
0-
0E
0F
0G
0H
#275000
1!
b1 "!
b1010 $
1&
0(
1)
1-
1/
01
12
05
16
08
19
0:
0;
0=
1>
1E
1F
1G
1H
1M
0O
1P
0T
1U
0Z
1[
0]
0_
0`
0a
1b
1c
1d
b1100 q
0t
b11001 {
1~
#280000
0!
0&
0-
0E
0F
0G
0H
#285000
1!
b11 "!
b1011 $
1&
1(
1-
0/
11
02
15
06
18
09
0:
1;
1=
1E
1F
1G
1H
0M
1O
0P
1T
0U
1Z
0[
1]
1_
1`
1a
b10100 q
1t
b10001 {
#290000
0!
0&
0-
0E
0F
0G
0H
#295000
1!
b111 "!
b1100 $
1%!
1&
0(
0)
1*
1-
0-!
1/
10
11
02
05
16
08
09
0:
1;
1<
0=
0>
1?
1E
1F
1G
1H
1M
1N
1O
0P
0T
1U
0Z
0[
0\
1]
1^
0_
0`
0a
0b
0c
0d
1e
1f
1g
b1100 q
0t
b10011 v
b10000 {
0~
#300000
0!
0&
0-
0E
0F
0G
0H
#305000
1!
b1101 $
1&
1(
1-
0/
12
15
06
08
19
1=
1E
1F
1G
1H
0M
1P
1T
0U
1[
1_
1`
1a
b10100 q
1t
b11000 {
#310000
0!
0&
0-
0E
0F
0G
0H
#315000
1!
b111 "!
b1110 $
1&
0(
1)
1-
0-!
1/
10
11
12
05
16
08
19
0:
1;
1<
0=
1>
1E
1F
1G
1H
1M
1N
1O
1P
0T
1U
0Z
1[
0\
1]
1^
0_
0`
0a
1b
1c
1d
b1100 q
0t
b10011 v
b11001 {
1~
#320000
0!
0&
0-
0E
0F
0G
0H
#325000
1!
b101 "!
b1111 $
1&
1(
1-
1-!
0/
00
01
02
15
06
18
09
1:
0;
0<
1=
1E
1F
1G
1H
0M
0N
0O
0P
1T
0U
1Z
0[
1\
0]
0^
1_
1`
1a
b10100 q
1t
b10001 v
b10001 {
#330000
0!
0&
0-
0E
0F
0G
0H
#335000
1!
b1 "!
b0 $
0%!
1&
0(
0)
0*
0+
1-
0-!
1/
00
01
02
05
16
08
09
0:
0;
0<
0=
0>
0?
0@
1E
1F
1G
1H
1M
0N
0O
0P
0T
1U
0Z
0[
0\
0]
0^
0_
0`
0a
0b
0c
0d
0e
0f
0g
0h
0i
0j
b1100 q
0t
b1 v
0y
b10000 {
0~
#340000
0!
0&
0-
0E
0F
0G
0H
#345000
1!
b1 $
1&
1(
1-
0/
12
15
06
08
19
1=
1E
1F
1G
1H
0M
1P
1T
0U
1[
1_
1`
1a
b10100 q
1t
b11000 {
#350000
0!
0&
0-
0E
0F
0G
0H
#355000
1!
b1 "!
b10 $
1&
0(
1)
1-
1/
01
12
05
16
08
19
0:
0;
0=
1>
1E
1F
1G
1H
1M
0O
1P
0T
1U
0Z
1[
0]
0_
0`
0a
1b
1c
1d
b1100 q
0t
b11001 {
1~
#360000
0!
0&
0-
0E
0F
0G
0H
#365000
1!
b11 "!
b11 $
1&
1(
1-
0/
11
02
15
06
18
09
0:
1;
1=
1E
1F
1G
1H
0M
1O
0P
1T
0U
1Z
0[
1]
1_
1`
1a
b10100 q
1t
b10001 {
#370000
0!
0&
0-
0E
0F
0G
0H
#375000
1!
b111 "!
b100 $
1%!
1&
0(
0)
1*
1-
1/
00
11
02
05
16
08
09
0:
1;
0<
0=
0>
1?
1E
1F
1G
1H
1M
0N
1O
0P
0T
1U
0Z
0[
0\
1]
0^
0_
0`
0a
0b
0c
0d
1e
1f
1g
b1100 q
0t
b1 v
b10000 {
0~
#380000
0!
0&
0-
0E
0F
0G
0H
#385000
1!
b101 $
1&
1(
1-
0/
12
15
06
08
19
1=
1E
1F
1G
1H
0M
1P
1T
0U
1[
1_
1`
1a
b10100 q
1t
b11000 {
#390000
0!
0&
0-
0E
0F
0G
0H
#395000
1!
b111 "!
b110 $
1&
0(
1)
1-
1/
00
11
12
05
16
08
19
0:
1;
0<
0=
1>
1E
1F
1G
1H
1M
0N
1O
1P
0T
1U
0Z
1[
0\
1]
0^
0_
0`
0a
1b
1c
1d
b1100 q
0t
b1 v
b11001 {
1~
#400000
0!
0&
0-
0E
0F
0G
0H
#405000
1!
b101 "!
b111 $
1&
1(
1-
0/
10
01
02
15
06
18
09
1:
0;
1<
1=
1E
1F
1G
1H
0M
1N
0O
0P
1T
0U
1Z
0[
1\
0]
1^
1_
1`
1a
b10100 q
1t
b11 v
b10001 {
#410000
0!
0&
0-
0E
0F
0G
0H
#415000
1!
b1 "!
b1000 $
0%!
1&
0(
0)
0*
1+
1-
0-!
1/
10
01
02
05
16
08
09
0:
0;
1<
0=
0>
0?
1@
1E
1F
1G
1H
1M
1N
0O
0P
0T
1U
0Z
0[
0\
0]
1^
0_
0`
0a
0b
0c
0d
0e
0f
0g
1h
1i
1j
b1100 q
0t
b10011 v
1y
b10000 {
0~
#420000
0!
0&
0-
0E
0F
0G
0H
#425000
1!
b1001 $
1&
1(
1-
0/
12
15
06
08
19
1=
1E
1F
1G
1H
0M
1P
1T
0U
1[
1_
1`
1a
b10100 q
1t
b11000 {
#430000
0!
0&
0-
0E
0F
0G
0H
#435000
1!
b1 "!
b1010 $
1&
0(
1)
1-
1/
01
12
05
16
08
19
0:
0;
0=
1>
1E
1F
1G
1H
1M
0O
1P
0T
1U
0Z
1[
0]
0_
0`
0a
1b
1c
1d
b1100 q
0t
b11001 {
1~
#440000
0!
0&
0-
0E
0F
0G
0H
#445000
1!
b11 "!
b1011 $
1&
1(
1-
0/
11
02
15
06
18
09
0:
1;
1=
1E
1F
1G
1H
0M
1O
0P
1T
0U
1Z
0[
1]
1_
1`
1a
b10100 q
1t
b10001 {
#450000
0!
0&
0-
0E
0F
0G
0H
#455000
1!
b111 "!
b1100 $
1%!
1&
0(
0)
1*
1-
0-!
1/
10
11
02
05
16
08
09
0:
1;
1<
0=
0>
1?
1E
1F
1G
1H
1M
1N
1O
0P
0T
1U
0Z
0[
0\
1]
1^
0_
0`
0a
0b
0c
0d
1e
1f
1g
b1100 q
0t
b10011 v
b10000 {
0~
